(module Relay_FRA2C (layer F.Cu) (tedit 58CF0064)
  (fp_text reference RL1 (at 0 12) (layer F.SilkS)
    (effects (font (size 1 1) (thickness 0.15)))
  )
  (fp_text value FRA2C (at 0 -12) (layer F.Fab)
    (effects (font (size 1 1) (thickness 0.15)))
  )
  (fp_line (start 8.65 6.95) (end 12 6.95) (layer F.SilkS) (width 0.15))
  (fp_line (start -2.35 6.95) (end 5.45 6.95) (layer F.SilkS) (width 0.15))
  (fp_line (start 0.5 -1.5) (end 2 -0.5) (layer F.SilkS) (width 0.15))
  (fp_line (start 3.35 -3.8) (end 3.35 -1) (layer F.SilkS) (width 0.15))
  (fp_line (start 3.35 -1) (end 2.5 -1) (layer F.SilkS) (width 0.15))
  (fp_line (start -0.85 -3.8) (end -0.85 -1) (layer F.SilkS) (width 0.15))
  (fp_line (start -0.85 -1) (end 0 -1) (layer F.SilkS) (width 0.15))
  (fp_line (start 0 -1.5) (end 2.5 -1.5) (layer F.SilkS) (width 0.15))
  (fp_line (start 2.5 -1.5) (end 2.5 -0.5) (layer F.SilkS) (width 0.15))
  (fp_line (start 2.5 -0.5) (end 0 -0.5) (layer F.SilkS) (width 0.15))
  (fp_line (start 0 -1.5) (end 0 -0.5) (layer F.SilkS) (width 0.15))
  (fp_line (start 10.6 -7.7) (end 12 -6.8) (layer F.SilkS) (width 0.15))
  (fp_line (start 11 -8.45) (end 11 -7.45) (layer F.SilkS) (width 0.15))
  (fp_line (start 10.6 -5.15) (end 11 -5.15) (layer F.SilkS) (width 0.15))
  (fp_line (start 11 -5.15) (end 11 -6.15) (layer F.SilkS) (width 0.15))
  (fp_line (start 10.6 -8.45) (end 11 -8.45) (layer F.SilkS) (width 0.15))
  (fp_line (start -6.65 -5.74) (end -6.65 6.95) (layer F.SilkS) (width 0.15))
  (fp_line (start -5.55 6.95) (end -6.65 6.95) (layer F.SilkS) (width 0.15))
  (fp_line (start 12 -6.8) (end 12 6.95) (layer F.SilkS) (width 0.15))
  (fp_line (start -13.25 -11.15) (end -13.25 11.15) (layer F.SilkS) (width 0.15))
  (fp_line (start -13.25 11.15) (end 13.25 11.15) (layer F.SilkS) (width 0.15))
  (fp_line (start 13.25 11.15) (end 13.25 -11.15) (layer F.SilkS) (width 0.15))
  (fp_line (start 13.25 -11.15) (end -13.25 -11.15) (layer F.SilkS) (width 0.15))
  (pad 12 thru_hole circle (at 9.25 -8.45) (size 2.5 2.5) (drill 1.5) (layers *.Cu *.Mask))
  (pad 14 thru_hole circle (at 9.25 -5.15) (size 2.5 2.5) (drill 1.5) (layers *.Cu *.Mask))
  (pad A1 thru_hole circle (at 3.35 -5.15) (size 2.5 2.5) (drill 1.5) (layers *.Cu *.Mask))
  (pad A2 thru_hole circle (at -0.85 -5.15) (size 2.5 2.5) (drill 1.5) (layers *.Cu *.Mask))
  (pad 11 thru_hole circle (at -6.65 -7.35) (size 3 3) (drill 2.2) (layers *.Cu *.Mask))
  (pad 11 thru_hole circle (at 7.05 6.95) (size 3 3) (drill 2.2) (layers *.Cu *.Mask))
  (pad 11 thru_hole circle (at -3.95 6.95) (size 3 3) (drill 2.2) (layers *.Cu *.Mask))
)
