(module USB_5V_Adapter (layer F.Cu) (tedit 58CC103A)
  (descr "USB A connector")
  (tags "USB USB_A")
  (fp_text reference VRM** (at 7.62 -30.48) (layer F.SilkS)
    (effects (font (size 1 1) (thickness 0.15)))
  )
  (fp_text value USB_A (at 7.62 -15.24) (layer F.Fab)
    (effects (font (size 1 1) (thickness 0.15)))
  )
  (fp_text user USB (at 7.62 -5.08) (layer F.SilkS)
    (effects (font (size 1 1) (thickness 0.15)))
  )
  (fp_text user - (at 10.16 -24.13) (layer F.SilkS)
    (effects (font (size 1 1) (thickness 0.15)))
  )
  (fp_text user + (at 5.08 -24.13) (layer F.SilkS)
    (effects (font (size 1 1) (thickness 0.15)))
  )
  (fp_text user "12 V" (at 7.62 -22.86) (layer F.SilkS)
    (effects (font (size 1 1) (thickness 0.15)))
  )
  (fp_line (start -1 -33) (end -1 1) (layer F.CrtYd) (width 0.05))
  (fp_line (start 16 1) (end 16 -33) (layer F.CrtYd) (width 0.05))
  (fp_line (start -1 1) (end 16 1) (layer F.CrtYd) (width 0.05))
  (fp_line (start -1 -33) (end 16 -33) (layer F.CrtYd) (width 0.05))
  (fp_line (start 15 0) (end 15 -28) (layer F.SilkS) (width 0.15))
  (fp_line (start 0 -28) (end 0 0) (layer F.SilkS) (width 0.15))
  (fp_line (start 0 -28) (end 15 -28) (layer F.SilkS) (width 0.15))
  (fp_line (start 0 0) (end 15 0) (layer F.SilkS) (width 0.15))
  (pad 1 connect circle (at 5.08 -25.4) (size 1.524 1.524) (layers F.SilkS))
  (pad 2 connect circle (at 10.16 -25.4) (size 1.524 1.524) (layers F.SilkS))
  (pad 3 connect circle (at 2.54 -2.54) (size 1.524 1.524) (layers F.SilkS))
  (pad 4 connect circle (at 5.08 -2.54) (size 1.524 1.524) (layers F.SilkS))
  (pad 5 connect circle (at 7.62 -2.54) (size 1.524 1.524) (layers F.SilkS))
  (pad 6 connect circle (at 10.16 -2.54) (size 1.524 1.524) (layers F.SilkS))
  (pad 7 connect circle (at 12.7 -2.54) (size 1.524 1.524) (layers F.SilkS))
  (model Connect.3dshapes/USB_A.wrl
    (at (xyz 0.3 0.5 0.1))
    (scale (xyz 1 1 1))
    (rotate (xyz 0 0 90))
  )
)
